Flow report for fpgagen
Wed Jan 03 20:05:41 2018
Quartus II 64-Bit Version 13.0.1 Build 232 06/12/2013 Service Pack 1 SJ Web Edition


---------------------
; Table of Contents ;
---------------------
  1. Legal Notice
  2. Flow Summary
  3. Flow Settings
  4. Flow Non-Default Global Settings
  5. Flow Elapsed Time
  6. Flow OS Summary
  7. Flow Log
  8. Flow Messages
  9. Flow Suppressed Messages



----------------
; Legal Notice ;
----------------
Copyright (C) 1991-2013 Altera Corporation
Your use of Altera Corporation's design tools, logic functions 
and other software and tools, and its AMPP partner logic 
functions, and any output files from any of the foregoing 
(including device programming or simulation files), and any 
associated documentation or information are expressly subject 
to the terms and conditions of the Altera Program License 
Subscription Agreement, Altera MegaCore Function License 
Agreement, or other applicable license agreement, including, 
without limitation, that your use is for the sole purpose of 
programming logic devices manufactured by Altera and sold by 
Altera or its authorized distributors.  Please refer to the 
applicable agreement for further details.



+--------------------------------------------------------------------------------------+
; Flow Summary                                                                         ;
+------------------------------------+-------------------------------------------------+
; Flow Status                        ; Successful - Wed Jan 03 20:05:33 2018           ;
; Quartus II 64-Bit Version          ; 13.0.1 Build 232 06/12/2013 SP 1 SJ Web Edition ;
; Revision Name                      ; fpgagen                                         ;
; Top-level Entity Name              ; MIST_Toplevel                                   ;
; Family                             ; Cyclone III                                     ;
; Device                             ; EP3C25E144C8                                    ;
; Timing Models                      ; Final                                           ;
; Total logic elements               ; 22,923 / 24,624 ( 93 % )                        ;
;     Total combinational functions  ; 17,868 / 24,624 ( 73 % )                        ;
;     Dedicated logic registers      ; 11,373 / 24,624 ( 46 % )                        ;
; Total registers                    ; 11439                                           ;
; Total pins                         ; 73 / 83 ( 88 % )                                ;
; Total virtual pins                 ; 0                                               ;
; Total memory bits                  ; 212,550 / 608,256 ( 35 % )                      ;
; Embedded Multiplier 9-bit elements ; 11 / 132 ( 8 % )                                ;
; Total PLLs                         ; 2 / 4 ( 50 % )                                  ;
+------------------------------------+-------------------------------------------------+


+-----------------------------------------+
; Flow Settings                           ;
+-------------------+---------------------+
; Option            ; Setting             ;
+-------------------+---------------------+
; Start date & time ; 01/03/2018 19:54:49 ;
; Main task         ; Compilation         ;
; Revision Name     ; fpgagen             ;
+-------------------+---------------------+


+-------------------------------------------------------------------------------------------------------------------------------------------------------------------------+
; Flow Non-Default Global Settings                                                                                                                                        ;
+-------------------------------------------------+-----------------------------------------------------------------+--------------------+---------------+----------------+
; Assignment Name                                 ; Value                                                           ; Default Value      ; Entity Name   ; Section Id     ;
+-------------------------------------------------+-----------------------------------------------------------------+--------------------+---------------+----------------+
; ADV_NETLIST_OPT_SYNTH_WYSIWYG_REMAP             ; On                                                              ; Off                ; --            ; --             ;
; ALLOW_SHIFT_REGISTER_MERGING_ACROSS_HIERARCHIES ; Always                                                          ; Auto               ; --            ; --             ;
; AUTO_SHIFT_REGISTER_RECOGNITION                 ; Always                                                          ; Auto               ; --            ; --             ;
; COMPILER_SIGNATURE_ID                           ; 163683365256221.151501648905068                                 ; --                 ; --            ; --             ;
; CYCLONEII_OPTIMIZATION_TECHNIQUE                ; Speed                                                           ; Balanced           ; --            ; --             ;
; EDA_TIME_SCALE                                  ; 1 ps                                                            ; --                 ; --            ; eda_simulation ;
; ENABLE_SIGNALTAP                                ; Off                                                             ; --                 ; --            ; --             ;
; FITTER_EFFORT                                   ; Standard Fit                                                    ; Auto Fit           ; --            ; --             ;
; IP_TOOL_NAME                                    ; ALTPLL                                                          ; --                 ; --            ; --             ;
; IP_TOOL_NAME                                    ; ALTPLL                                                          ; --                 ; --            ; --             ;
; IP_TOOL_VERSION                                 ; 13.0                                                            ; --                 ; --            ; --             ;
; IP_TOOL_VERSION                                 ; 13.0                                                            ; --                 ; --            ; --             ;
; MAX_CORE_JUNCTION_TEMP                          ; 85                                                              ; --                 ; --            ; --             ;
; MIN_CORE_JUNCTION_TEMP                          ; 0                                                               ; --                 ; --            ; --             ;
; MISC_FILE                                       ; ../../Board/mist/pll.bsf                                        ; --                 ; --            ; --             ;
; MISC_FILE                                       ; ../../Board/mist/pll.cmp                                        ; --                 ; --            ; --             ;
; MISC_FILE                                       ; ../../Board/mist/pll.ppf                                        ; --                 ; --            ; --             ;
; MISC_FILE                                       ; ../../Board/mist/SPIRecoveryClock.cmp                           ; --                 ; --            ; --             ;
; MISC_FILE                                       ; ../../Board/mist/SPIRecoveryClock.ppf                           ; --                 ; --            ; --             ;
; MUX_RESTRUCTURE                                 ; On                                                              ; Auto               ; --            ; --             ;
; OPTIMIZE_POWER_DURING_FITTING                   ; Extra effort                                                    ; Normal compilation ; --            ; --             ;
; OPTIMIZE_POWER_DURING_SYNTHESIS                 ; Extra effort                                                    ; Normal compilation ; --            ; --             ;
; OUTPUT_IO_TIMING_FAR_END_VMEAS                  ; Half Signal Swing                                               ; --                 ; --            ; --             ;
; OUTPUT_IO_TIMING_FAR_END_VMEAS                  ; Half Signal Swing                                               ; --                 ; --            ; --             ;
; OUTPUT_IO_TIMING_NEAR_END_VMEAS                 ; Half Vccio                                                      ; --                 ; --            ; --             ;
; OUTPUT_IO_TIMING_NEAR_END_VMEAS                 ; Half Vccio                                                      ; --                 ; --            ; --             ;
; PARTITION_COLOR                                 ; 16764057                                                        ; --                 ; MIST_Toplevel ; Top            ;
; PARTITION_FITTER_PRESERVATION_LEVEL             ; PLACEMENT_AND_ROUTING                                           ; --                 ; MIST_Toplevel ; Top            ;
; PARTITION_NETLIST_TYPE                          ; SOURCE                                                          ; --                 ; MIST_Toplevel ; Top            ;
; PHYSICAL_SYNTHESIS_COMBO_LOGIC                  ; On                                                              ; Off                ; --            ; --             ;
; PHYSICAL_SYNTHESIS_COMBO_LOGIC_FOR_AREA         ; On                                                              ; Off                ; --            ; --             ;
; PHYSICAL_SYNTHESIS_MAP_LOGIC_TO_MEMORY_FOR_AREA ; On                                                              ; Off                ; --            ; --             ;
; PHYSICAL_SYNTHESIS_REGISTER_RETIMING            ; On                                                              ; Off                ; --            ; --             ;
; POWER_BOARD_THERMAL_MODEL                       ; None (CONSERVATIVE)                                             ; --                 ; --            ; --             ;
; POWER_PRESET_COOLING_SOLUTION                   ; No Heat Sink With Still Air                                     ; --                 ; --            ; --             ;
; REMOVE_REDUNDANT_LOGIC_CELLS                    ; On                                                              ; Off                ; --            ; --             ;
; ROUTER_CLOCKING_TOPOLOGY_ANALYSIS               ; On                                                              ; Off                ; --            ; --             ;
; ROUTER_TIMING_OPTIMIZATION_LEVEL                ; MAXIMUM                                                         ; Normal             ; --            ; --             ;
; SEED                                            ; 2                                                               ; 1                  ; --            ; --             ;
; SLD_FILE                                        ; /home/amr/FPGA/Projects/fpgagen/syn/mist/stp2_auto_stripped.stp ; --                 ; --            ; --             ;
; SMART_RECOMPILE                                 ; On                                                              ; Off                ; --            ; --             ;
; TIMEQUEST_MULTICORNER_ANALYSIS                  ; Off                                                             ; On                 ; --            ; --             ;
; TOP_LEVEL_ENTITY                                ; MIST_Toplevel                                                   ; fpgagen            ; --            ; --             ;
; USE_SIGNALTAP_FILE                              ; stp2.stp                                                        ; --                 ; --            ; --             ;
+-------------------------------------------------+-----------------------------------------------------------------+--------------------+---------------+----------------+


+-------------------------------------------------------------------------------------------------------------------------------+
; Flow Elapsed Time                                                                                                             ;
+---------------------------+--------------+-------------------------+---------------------+------------------------------------+
; Module Name               ; Elapsed Time ; Average Processors Used ; Peak Virtual Memory ; Total CPU Time (on all processors) ;
+---------------------------+--------------+-------------------------+---------------------+------------------------------------+
; Analysis & Synthesis      ; 00:03:33     ; 1.0                     ; 831 MB              ; 00:03:32                           ;
; Fitter                    ; 00:06:54     ; 1.8                     ; 1545 MB             ; 00:10:40                           ;
; Assembler                 ; 00:00:07     ; 1.0                     ; 661 MB              ; 00:00:07                           ;
; TimeQuest Timing Analyzer ; 00:00:06     ; 1.0                     ; 801 MB              ; 00:00:08                           ;
; Total                     ; 00:10:40     ; --                      ; --                  ; 00:14:27                           ;
+---------------------------+--------------+-------------------------+---------------------+------------------------------------+


+----------------------------------------------------------------------------------------+
; Flow OS Summary                                                                        ;
+---------------------------+------------------+-----------+------------+----------------+
; Module Name               ; Machine Hostname ; OS Name   ; OS Version ; Processor type ;
+---------------------------+------------------+-----------+------------+----------------+
; Analysis & Synthesis      ; DESKTOP-84RDELE  ; Windows 7 ; 6.2        ; x86_64         ;
; Fitter                    ; DESKTOP-84RDELE  ; Windows 7 ; 6.2        ; x86_64         ;
; Assembler                 ; DESKTOP-84RDELE  ; Windows 7 ; 6.2        ; x86_64         ;
; TimeQuest Timing Analyzer ; DESKTOP-84RDELE  ; Windows 7 ; 6.2        ; x86_64         ;
+---------------------------+------------------+-----------+------------+----------------+


------------
; Flow Log ;
------------
quartus_map --read_settings_files=on --write_settings_files=off fpgagen -c fpgagen
quartus_fit --read_settings_files=off --write_settings_files=off fpgagen -c fpgagen
quartus_asm --read_settings_files=off --write_settings_files=off fpgagen -c fpgagen
quartus_sta fpgagen -c fpgagen



